…
names(parties)

## [1] "page"        "year"        "transaction" "party1"      "typenomf"   
## [6] "typemf"      "spouse"      "side"        "cite"

parties

## # A tibble: 330 x 9
##     page  year transaction party1   typenomf typemf spouse side  cite           
##    <dbl> <dbl> <chr>       <chr>    <chr>    <chr>  <chr>  <chr> <chr>          
##  1    18  1923 Business    Allen    Man      Man    N      π     Allen v. Bissi…
##  2    21  2017 Consumer    Spencer… Man      Man    N      π     Meyer v. Uber …
##  3    37  1952 Consumer    Calvin … Man      Man    Y      π     Ray v. William…
##  4    37  1952 Consumer    Katheri… Woman    Woman  Y      π     Ray v. William…
##  5    47  1954 Property    Lonergan Man      Man    N      π     Lonergan v. Sc…
##  6    51  1985 Property    Michael… Man      Man    N      π     Normile v. Mil…
##  7    51  1985 Property    Wawie K… Unknown  Unkno… N      π     Normile v. Mil…
##  8    51  1985 Property    Segal    Unknown  Unkno… N      π     Normile v. Mil…
##  9    51  1985 Property    Gladys … Woman    Woman  N      π     Normile v. Mil…
## 10    61  1998 Employee    Mary El… Woman    Woman  N      π     Cook v. Colwel…
## # … with 320 more rows
…
blah <- parties %>%
  filter(typenomf == "Woman") %>%
  group_by(year, transaction) %>%
  mutate(n = n()) %>%
  ggplot(aes(year,n, color = transaction, color = transaction,text = paste(party1," ", typenomf, " ", side))) +
  geom_point(alpha = 0.5, size = 2, position = position_jitter(w = 1, h = 0.1))

## Warning: Duplicated aesthetics after name standardisation: colour

ggplotly(blah, tooltip = "text") 

parties %>%
  filter(typemf == "MBusiness" | typemf == "FBusiness")

## # A tibble: 23 x 9
##     page  year transaction party1    typenomf typemf  spouse side  cite         
##    <dbl> <dbl> <chr>       <chr>     <chr>    <chr>   <chr>  <chr> <chr>        
##  1   165  1998 Business    Princess… Business FBusin… N      π     Princess Cru…
##  2   184  2007 Business    Paul Got… Business MBusin… N      π     Paul Gottlie…
##  3   274  1933 Business    James Ba… Business MBusin… N      π     James Baird …
##  4   285  1998 Business    Pop's Co… Business MBusin… N      π     Pop's Cones,…
##  5   757  1998 Business    Mel Fran… Business MBusin… N      π     Mel Frank To…
##  6   849  1995 Business    Truman L… Business MBusin… N      π     Truman L. Fl…
##  7   949  2003 Business    Zapata H… Business MBusin… N      π     Zapata Herma…
##  8  1123  1986 Business    Sally Be… Business FBusin… N      π     Sally Beauty…
##  9  1123  1986 Business    Alberto-… Business MBusin… N      π     Sally Beauty…
## 10    37  1952 Consumer    William … Business MBusin… N      ∆     Ray v. Willi…
## # … with 13 more rows
…
